-------------------- Auto-Git Log --------------------
		Sun Feb 09 2020 18:36:50 GMT+0700 (Western Indonesia Time)
------------------------------------------------------

Modified files:
* resources/views/artikel.blade.php
* resources/views/layouts/app.blade.php


Created files:
* public/yosemodal/.DS_Store
* public/yosemodal/css/.DS_Store
* public/yosemodal/css/yosemodal.css
* public/yosemodal/css/yosemodal.min.css
* public/yosemodal/font-awesome/.DS_Store
* "public/yosemodal/font-awesome/Font Awesome version 4.2.0.txt"
* public/yosemodal/font-awesome/css/font-awesome.css
* public/yosemodal/font-awesome/css/font-awesome.min.css
* public/yosemodal/font-awesome/fonts/FontAwesome.otf
* public/yosemodal/font-awesome/fonts/fontawesome-webfont.eot
* public/yosemodal/font-awesome/fonts/fontawesome-webfont.svg
* public/yosemodal/font-awesome/fonts/fontawesome-webfont.ttf
* public/yosemodal/font-awesome/fonts/fontawesome-webfont.woff
* public/yosemodal/font-awesome/less/bordered-pulled.less
* public/yosemodal/font-awesome/less/core.less
* public/yosemodal/font-awesome/less/fixed-width.less
* public/yosemodal/font-awesome/less/font-awesome.less
* public/yosemodal/font-awesome/less/icons.less
* public/yosemodal/font-awesome/less/larger.less
* public/yosemodal/font-awesome/less/list.less
* public/yosemodal/font-awesome/less/mixins.less
* public/yosemodal/font-awesome/less/path.less
* public/yosemodal/font-awesome/less/rotated-flipped.less
* public/yosemodal/font-awesome/less/spinning.less
* public/yosemodal/font-awesome/less/stacked.less
* public/yosemodal/font-awesome/less/variables.less
* public/yosemodal/font-awesome/scss/_bordered-pulled.scss
* public/yosemodal/font-awesome/scss/_core.scss
* public/yosemodal/font-awesome/scss/_fixed-width.scss
* public/yosemodal/font-awesome/scss/_icons.scss
* public/yosemodal/font-awesome/scss/_larger.scss
* public/yosemodal/font-awesome/scss/_list.scss
* public/yosemodal/font-awesome/scss/_mixins.scss
* public/yosemodal/font-awesome/scss/_path.scss
* public/yosemodal/font-awesome/scss/_rotated-flipped.scss
* public/yosemodal/font-awesome/scss/_spinning.scss
* public/yosemodal/font-awesome/scss/_stacked.scss
* public/yosemodal/font-awesome/scss/_variables.scss
* public/yosemodal/font-awesome/scss/font-awesome.scss
* public/yosemodal/img/back.jpg
* public/yosemodal/img/demopic.png
* public/yosemodal/img/div.png
* public/yosemodal/img/folder.png
* public/yosemodal/img/pic1.jpg
* public/yosemodal/js/.DS_Store
* public/yosemodal/js/gsap.js
* public/yosemodal/js/jquery-1.11.1.min.js
* public/yosemodal/js/yosemodal.js
* public/yosemodal/js/yosemodal.min.js


Deleted files:


Renamed files:
